{
  "project_info": {
    "project_number": "1083311577035",
    "firebase_url": "https://gps-and-fleet.firebaseio.com",
    "project_id": "gps-and-fleet",
    "storage_bucket": "gps-and-fleet.appspot.com"
  },
  "client": [
    {
      "client_info": {
        "mobilesdk_app_id": "1:1083311577035:android:198d74627baf4f6d",
        "android_client_info": {
          "package_name": "com.gps.fleet"
        }
      },
      "oauth_client": [
        {
          "client_id": "1083311577035-prf6hfedcpvvevbuq4tctei5eqm05is6.apps.googleusercontent.com",
          "client_type": 3
        }
      ],
      "api_key": [
        {
          "current_key": "AIzaSyBOjNuWW3nqOTZN_2wwG4A0cRJQ6EWfGZY"
        }
      ],
      "services": {
        "appinvite_service": {
          "other_platform_oauth_client": [
            {
              "client_id": "1083311577035-prf6hfedcpvvevbuq4tctei5eqm05is6.apps.googleusercontent.com",
              "client_type": 3
            }
          ]
        }
      }
    },
    {
      "client_info": {
        "mobilesdk_app_id": "1:1083311577035:android:2527ab371312f46c",
        "android_client_info": {
          "package_name": "com.matrackinc.matrackgps"
        }
      },
      "oauth_client": [
        {
          "client_id": "1083311577035-prf6hfedcpvvevbuq4tctei5eqm05is6.apps.googleusercontent.com",
          "client_type": 3
        }
      ],
      "api_key": [
        {
          "current_key": "AIzaSyBOjNuWW3nqOTZN_2wwG4A0cRJQ6EWfGZY"
        }
      ],
      "services": {
        "appinvite_service": {
          "other_platform_oauth_client": [
            {
              "client_id": "1083311577035-prf6hfedcpvvevbuq4tctei5eqm05is6.apps.googleusercontent.com",
              "client_type": 3
            }
          ]
        }
      }
    },
    {
      "client_info": {
        "mobilesdk_app_id": "1:1083311577035:android:ac2bee8ff62cb8d1",
        "android_client_info": {
          "package_name": "com.matrackinc.matrackgpsspanish"
        }
      },
      "oauth_client": [
        {
          "client_id": "1083311577035-prf6hfedcpvvevbuq4tctei5eqm05is6.apps.googleusercontent.com",
          "client_type": 3
        }
      ],
      "api_key": [
        {
          "current_key": "AIzaSyBOjNuWW3nqOTZN_2wwG4A0cRJQ6EWfGZY"
        }
      ],
      "services": {
        "appinvite_service": {
          "other_platform_oauth_client": [
            {
              "client_id": "1083311577035-prf6hfedcpvvevbuq4tctei5eqm05is6.apps.googleusercontent.com",
              "client_type": 3
            }
          ]
        }
      }
    },
    {
      "client_info": {
        "mobilesdk_app_id": "1:1083311577035:android:556eecbc8fcb62f5",
        "android_client_info": {
          "package_name": "com.spytecinc.spytecgps"
        }
      },
      "oauth_client": [
        {
          "client_id": "1083311577035-prf6hfedcpvvevbuq4tctei5eqm05is6.apps.googleusercontent.com",
          "client_type": 3
        }
      ],
      "api_key": [
        {
          "current_key": "AIzaSyBOjNuWW3nqOTZN_2wwG4A0cRJQ6EWfGZY"
        }
      ],
      "services": {
        "appinvite_service": {
          "other_platform_oauth_client": [
            {
              "client_id": "1083311577035-prf6hfedcpvvevbuq4tctei5eqm05is6.apps.googleusercontent.com",
              "client_type": 3
            }
          ]
        }
      }
    }
  ],
  "configuration_version": "1"
}